RESPONSE
STATUS: 200
TIME: 1093ms

HEADERS:
  Server: nginx/1.18.0 (Ubuntu)
  Date: Fri, 12 Jun 2026 01:08:14 GMT
  Content-Type: application/json
  Content-Length: 7468
  Connection: keep-alive
  Vary: Accept, origin
  Allow: GET, POST, HEAD, OPTIONS
  X-DjangoQueryCount-Count: 45
  X-Frame-Options: DENY
  X-Content-Type-Options: nosniff
  Referrer-Policy: same-origin
  Cross-Origin-Opener-Policy: same-origin

BODY:
{
  "page": 1,
  "total_pages": 206,
  "next": "http://api-v2-dev.joymee.uz/api/v1/announcement/?page=2",
  "previous": null,
  "total_count": 1563,
  "results": [
    {
      "id": 232,
      "title": "Fight serious pressure",
      "created_by": {
        "id": 66,
        "username": "fjones",
        "first_name": "Ryan",
        "last_name": "Юдина",
        "avatar": null
      },
      "pricing": {
        "currency": 2,
        "price": null,
        "price_from": "940.00",
        "price_to": "2400.00",
        "currency_display": "USD"
      },
      "status": 1,
      "subscription": 2,
      "image": "https://6045bcfada7eaf657e3a72f25eb0f2fb.r2.cloudflarestorage.com/joymee-dev-private-bucket/announcement/file/image/2026/06/05/19/c04065ce414a402ca811c5772d0ed74d.jpg?X-Amz-Algorithm=AWS4-HMAC-SHA256&X-Amz-Credential=47995e78c42c96104e8c649c6465062b%2F20260612%2Fauto%2Fs3%2Faws4_request&X-Amz-Date=20260612T010814Z&X-Amz-Expires=3600&X-Amz-SignedHeaders=host&X-Amz-Signature=9a6f1ed7b0368fa348843bb7840f121c3f00b5b3b40ce7fa093f3f1be52641e7",
      "created_at": "2026-05-06T18:41:03.780086+05:00"
    },
    {
      "id": 413,
      "title": "Medical war front dark",
      "created_by": {
        "id": 105,
        "username": "briangutierrez",
        "first_name": "Варлаам",
        "last_name": "Smith",
        "avatar": null
      },
      "pricing": {
        "currency": 1,
        "price": null,
        "price_from": "5200000.00",
        "price_to": "14500000.00",
        "currency_display": "UZS"
      },
      "status": 1,
      "subscription": 2,
      "image": "https://6045bcfada7eaf657e3a72f25eb0f2fb.r2.cloudflarestorage.com/joymee-dev-private-bucket/announcement/file/image/2026/06/05/19/fdf7610092494612b22a46ecc0ca08df.jpg?X-Amz-Algorithm=AWS4-HMAC-SHA256&X-Amz-Credential=47995e78c42c96104e8c649c6465062b%2F20260612%2Fauto%2Fs3%2Faws4_request&X-Amz-Date=20260612T010814Z&X-Amz-Expires=3600&X-Amz-SignedHeaders=host&X-Amz-Signature=1f83fbf76e98979a2204331359a4fa395c006de084c61f947e83b1790c66fd64",
      "created_at": "2026-05-06T18:41:03.907924+05:00"
    },
    {
      "id": 170,
      "title": "Банк сбросить механический сопровождаться что князь",
      "created_by": {
        "id": 181,
        "username": "anzhelika_2003",
        "first_name": "Лаврентий",
        "last_name": "Olson",
        "avatar": null
      },
      "pricing": {
        "currency": 2,
        "price": "349000.00",
        "price_from": null,
        "price_to": null,
        "currency_display": "USD"
      },
      "status": 1,
      "subscription": 2,
      "image": "https://6045bcfada7eaf657e3a72f25eb0f2fb.r2.cloudflarestorage.com/joymee-dev-private-bucket/announcement/file/image/2026/06/05/19/f5d253ae61e542b580eb3ed02d2a6284.jpg?X-Amz-Algorithm=AWS4-HMAC-SHA256&X-Amz-Credential=47995e78c42c96104e8c649c6465062b%2F20260612%2Fauto%2Fs3%2Faws4_request&X-Amz-Date=20260612T010814Z&X-Amz-Expires=3600&X-Amz-SignedHeaders=host&X-Amz-Signature=02a22bbf6bba3e48fb7f90db5f8cf3f507c178074f06e9f09d928ea5c26b9d16",
      "created_at": "2026-05-06T18:41:03.741903+05:00"
    },
    {
      "id": 32,
      "title": "More there manage right",
      "created_by": {
        "id": 104,
        "username": "kiravolkova",
        "first_name": "Любовь",
        "last_name": "Reed",
        "avatar": null
      },
      "pricing": {
        "currency": 2,
        "price": "184000.00",
        "price_from": null,
        "price_to": null,
        "currency_display": "USD"
      },
      "status": 1,
      "subscription": null,
      "image": "https://6045bcfada7eaf657e3a72f25eb0f2fb.r2.cloudflarestorage.com/joymee-dev-private-bucket/announcement/file/image/2026/06/05/19/689a74de90f34d7ca8bf851d1c09adaa.jpg?X-Amz-Algorithm=AWS4-HMAC-SHA256&X-Amz-Credential=47995e78c42c96104e8c649c6465062b%2F20260612%2Fauto%2Fs3%2Faws4_request&X-Amz-Date=20260612T010814Z&X-Amz-Expires=3600&X-Amz-SignedHeaders=host&X-Amz-Signature=4133ceea193ed158955ba4ac842f6465f57c50dd79e48b93a7ab26f59e0d6624",
      "created_at": "2026-05-06T18:41:03.667004+05:00"
    },
    {
      "id": 50,
      "title": "Решетка остановить добиться нервно",
      "created_by": {
        "id": 180,
        "username": "pbuck",
        "first_name": "Carolyn",
        "last_name": "Walker",
        "avatar": null
      },
      "pricing": {
        "currency": 2,
        "price": "220000.00",
        "price_from": null,
        "price_to": null,
        "currency_display": "USD"
      },
      "status": 1,
      "subscription": null,
      "image": "https://6045bcfada7eaf657e3a72f25eb0f2fb.r2.cloudflarestorage.com/joymee-dev-private-bucket/announcement/file/image/2026/06/05/19/7783a226eaa64f88971c5922a3dfda03.jpg?X-Amz-Algorithm=AWS4-HMAC-SHA256&X-Amz-Credential=47995e78c42c96104e8c649c6465062b%2F20260612%2Fauto%2Fs3%2Faws4_request&X-Amz-Date=20260612T010814Z&X-Amz-Expires=3600&X-Amz-SignedHeaders=host&X-Amz-Signature=9e32901ee3e4221bbd4556ff5f0981f87f620e23ecdfec63e7cd04b2aa758180",
      "created_at": "2026-05-06T18:41:03.678403+05:00"
    },
    {
      "id": 52,
      "title": "Offer cold chance then name director",
      "created_by": {
        "id": 96,
        "username": "john14",
        "first_name": "Иосиф",
        "last_name": "Davis",
        "avatar": null
      },
      "pricing": {
        "currency": 1,
        "price": "4284800000.00",
        "price_from": null,
        "price_to": null,
        "currency_display": "UZS"
      },
      "status": 1,
      "subscription": null,
      "image": "https://6045bcfada7eaf657e3a72f25eb0f2fb.r2.cloudflarestorage.com/joymee-dev-private-bucket/announcement/file/image/2026/06/05/19/f0d907bbd2bc47b79f982552b991e229.jpg?X-Amz-Algorithm=AWS4-HMAC-SHA256&X-Amz-Credential=47995e78c42c96104e8c649c6465062b%2F20260612%2Fauto%2Fs3%2Faws4_request&X-Amz-Date=20260612T010814Z&X-Amz-Expires=3600&X-Amz-SignedHeaders=host&X-Amz-Signature=d8b5346cd58b0bde2d98766b5a78e82ce13e72d939926fe293d7f367e39ec486",
      "created_at": "2026-05-06T18:41:03.679191+05:00"
    },
    {
      "id": 135,
      "title": "Смелый пастух протягивать отражение район трубка",
      "created_by": {
        "id": 139,
        "username": "uljan1998",
        "first_name": "Joseph",
        "last_name": "Киселева",
        "avatar": null
      },
      "pricing": {
        "currency": 2,
        "price": "189000.00",
        "price_from": null,
        "price_to": null,
        "currency_display": "USD"
      },
      "status": 1,
      "subscription": null,
      "image": "https://6045bcfada7eaf657e3a72f25eb0f2fb.r2.cloudflarestorage.com/joymee-dev-private-bucket/announcement/file/image/2026/06/05/19/6984bd168a4d40fa85a2ae09b5dd87b7.jpg?X-Amz-Algorithm=AWS4-HMAC-SHA256&X-Amz-Credential=47995e78c42c96104e8c649c6465062b%2F20260612%2Fauto%2Fs3%2Faws4_request&X-Amz-Date=20260612T010814Z&X-Amz-Expires=3600&X-Amz-SignedHeaders=host&X-Amz-Signature=695e189fb3dae14e914bd5cf13e249f9b4436a65bd42534d0ae095de7d0cb120",
      "created_at": "2026-05-06T18:41:03.719234+05:00"
    },
    {
      "id": 92,
      "title": "Than after purpose house season",
      "created_by": {
        "id": 193,
        "username": "pantelemon2006",
        "first_name": "Daniel",
        "last_name": "Jarvis",
        "avatar": null
      },
      "pricing": {
        "currency": 2,
        "price": "492000.00",
        "price_from": null,
        "price_to": null,
        "currency_display": "USD"
      },
      "status": 1,
      "subscription": null,
      "image": "https://6045bcfada7eaf657e3a72f25eb0f2fb.r2.cloudflarestorage.com/joymee-dev-private-bucket/announcement/file/image/2026/06/05/19/dbf24c9a895c4d9a81990ddcfa586547.jpg?X-Amz-Algorithm=AWS4-HMAC-SHA256&X-Amz-Credential=47995e78c42c96104e8c649c6465062b%2F20260612%2Fauto%2Fs3%2Faws4_request&X-Amz-Date=20260612T010814Z&X-Amz-Expires=3600&X-Amz-SignedHeaders=host&X-Amz-Signature=959cf2f6bbe7e12101580355e736344f58e863d9a42865ec3ab7183aef827d8a",
      "created_at": "2026-05-06T18:41:03.697973+05:00"
    },
    {
      "id": 15,
      "title": "Natural effort information guess environmental",
      "created_by": {
        "id": 128,
        "username": "fsavina",
        "first_name": "Ashley",
        "last_name": "Jennings",
        "avatar": null
      },
      "pricing": {
        "currency": 1,
        "price": null,
        "price_from": "3100000.00",
        "price_to": "23300000.00",
        "currency_display": "UZS"
      },
      "status": 1,
      "subscription": null,
      "image": "https://6045bcfada7eaf657e3a72f25eb0f2fb.r2.cloudflarestorage.com/joymee-dev-private-bucket/announcement/file/image/2026/06/05/19/814630664c2440d9853c830ac15c578f.jpg?X-Amz-Algorithm=AWS4-HMAC-SHA256&X-Amz-Credential=47995e78c42c96104e8c649c6465062b%2F20260612%2Fauto%2Fs3%2Faws4_request&X-Amz-Date=20260612T010814Z&X-Amz-Expires=3600&X-Amz-SignedHeaders=host&X-Amz-Signature=ad9f0ac50b0becc70d46e57fa4f824b9d13295dbb51721f9c5fc25cbbbcd5d98",
      "created_at": "2026-05-06T18:41:03.654053+05:00"
    }
  ]
}