RESPONSE
STATUS: 200
TIME: 853ms

HEADERS:
  Server: nginx/1.18.0 (Ubuntu)
  Date: Sun, 14 Jun 2026 01:08:23 GMT
  Content-Type: application/json
  Content-Length: 7760
  Connection: keep-alive
  Vary: Accept, origin, Cookie
  Allow: GET, POST, HEAD, OPTIONS
  X-DjangoQueryCount-Count: 54
  X-Frame-Options: DENY
  X-Content-Type-Options: nosniff
  Referrer-Policy: same-origin
  Cross-Origin-Opener-Policy: same-origin
  Set-Cookie: sess***

BODY:
{
  "page": 1,
  "total_pages": 206,
  "next": "http://api-v2-dev.joymee.uz/api/v1/announcement/?page=2",
  "previous": null,
  "total_count": 1563,
  "results": [
    {
      "id": 232,
      "title": "Fight serious pressure",
      "created_by": {
        "id": 66,
        "username": "fjones",
        "first_name": "Ryan",
        "last_name": "Юдина",
        "full_name": "Юдина Ryan",
        "avatar": null
      },
      "pricing": {
        "currency": 2,
        "price": null,
        "price_from": "940.00",
        "price_to": "2400.00",
        "currency_display": "USD"
      },
      "status": 1,
      "subscription": 2,
      "image": "https://6045bcfada7eaf657e3a72f25eb0f2fb.r2.cloudflarestorage.com/joymee-dev-private-bucket/announcement/file/image/2026/06/05/19/c04065ce414a402ca811c5772d0ed74d.jpg?X-Amz-Algorithm=AWS4-HMAC-SHA256&X-Amz-Credential=47995e78c42c96104e8c649c6465062b%2F20260614%2Fauto%2Fs3%2Faws4_request&X-Amz-Date=20260614T010822Z&X-Amz-Expires=3600&X-Amz-SignedHeaders=host&X-Amz-Signature=85fa7c8f06aacb7e4cc85e60a6261bdf4645bc5bd21581c4ec54041ac41ffcbc",
      "created_at": "2026-05-06T18:41:03.780086+05:00"
    },
    {
      "id": 413,
      "title": "Medical war front dark",
      "created_by": {
        "id": 105,
        "username": "briangutierrez",
        "first_name": "Варлаам",
        "last_name": "Smith",
        "full_name": "Smith Варлаам",
        "avatar": null
      },
      "pricing": {
        "currency": 1,
        "price": null,
        "price_from": "5200000.00",
        "price_to": "14500000.00",
        "currency_display": "UZS"
      },
      "status": 1,
      "subscription": 2,
      "image": "https://6045bcfada7eaf657e3a72f25eb0f2fb.r2.cloudflarestorage.com/joymee-dev-private-bucket/announcement/file/image/2026/06/05/19/fdf7610092494612b22a46ecc0ca08df.jpg?X-Amz-Algorithm=AWS4-HMAC-SHA256&X-Amz-Credential=47995e78c42c96104e8c649c6465062b%2F20260614%2Fauto%2Fs3%2Faws4_request&X-Amz-Date=20260614T010822Z&X-Amz-Expires=3600&X-Amz-SignedHeaders=host&X-Amz-Signature=821c11b21d5bd3c5efeed8b88a6fcf88374f23e1d368c9a2fcca65706c874da8",
      "created_at": "2026-05-06T18:41:03.907924+05:00"
    },
    {
      "id": 170,
      "title": "Банк сбросить механический сопровождаться что князь",
      "created_by": {
        "id": 181,
        "username": "anzhelika_2003",
        "first_name": "Лаврентий",
        "last_name": "Olson",
        "full_name": "Olson Лаврентий",
        "avatar": null
      },
      "pricing": {
        "currency": 2,
        "price": "349000.00",
        "price_from": null,
        "price_to": null,
        "currency_display": "USD"
      },
      "status": 1,
      "subscription": 2,
      "image": "https://6045bcfada7eaf657e3a72f25eb0f2fb.r2.cloudflarestorage.com/joymee-dev-private-bucket/announcement/file/image/2026/06/05/19/f5d253ae61e542b580eb3ed02d2a6284.jpg?X-Amz-Algorithm=AWS4-HMAC-SHA256&X-Amz-Credential=47995e78c42c96104e8c649c6465062b%2F20260614%2Fauto%2Fs3%2Faws4_request&X-Amz-Date=20260614T010823Z&X-Amz-Expires=3600&X-Amz-SignedHeaders=host&X-Amz-Signature=b9c5cde73f1027814a62127e8a7334f1199670d9f9d5a69029c57faf9f1ff506",
      "created_at": "2026-05-06T18:41:03.741903+05:00"
    },
    {
      "id": 32,
      "title": "More there manage right",
      "created_by": {
        "id": 104,
        "username": "kiravolkova",
        "first_name": "Любовь",
        "last_name": "Reed",
        "full_name": "Reed Любовь",
        "avatar": null
      },
      "pricing": {
        "currency": 2,
        "price": "184000.00",
        "price_from": null,
        "price_to": null,
        "currency_display": "USD"
      },
      "status": 1,
      "subscription": null,
      "image": "https://6045bcfada7eaf657e3a72f25eb0f2fb.r2.cloudflarestorage.com/joymee-dev-private-bucket/announcement/file/image/2026/06/05/19/689a74de90f34d7ca8bf851d1c09adaa.jpg?X-Amz-Algorithm=AWS4-HMAC-SHA256&X-Amz-Credential=47995e78c42c96104e8c649c6465062b%2F20260614%2Fauto%2Fs3%2Faws4_request&X-Amz-Date=20260614T010823Z&X-Amz-Expires=3600&X-Amz-SignedHeaders=host&X-Amz-Signature=1926f4b6e819a1999f99164f5ed51711153bffd91fcb40fe7303e4e5c5a37e8c",
      "created_at": "2026-05-06T18:41:03.667004+05:00"
    },
    {
      "id": 50,
      "title": "Решетка остановить добиться нервно",
      "created_by": {
        "id": 180,
        "username": "pbuck",
        "first_name": "Carolyn",
        "last_name": "Walker",
        "full_name": "Walker Carolyn",
        "avatar": null
      },
      "pricing": {
        "currency": 2,
        "price": "220000.00",
        "price_from": null,
        "price_to": null,
        "currency_display": "USD"
      },
      "status": 1,
      "subscription": null,
      "image": "https://6045bcfada7eaf657e3a72f25eb0f2fb.r2.cloudflarestorage.com/joymee-dev-private-bucket/announcement/file/image/2026/06/05/19/7783a226eaa64f88971c5922a3dfda03.jpg?X-Amz-Algorithm=AWS4-HMAC-SHA256&X-Amz-Credential=47995e78c42c96104e8c649c6465062b%2F20260614%2Fauto%2Fs3%2Faws4_request&X-Amz-Date=20260614T010823Z&X-Amz-Expires=3600&X-Amz-SignedHeaders=host&X-Amz-Signature=478e40970e72b4956e8b3a51b9506c0fc84d744f66a2ab330540a6e707fcf367",
      "created_at": "2026-05-06T18:41:03.678403+05:00"
    },
    {
      "id": 52,
      "title": "Offer cold chance then name director",
      "created_by": {
        "id": 96,
        "username": "john14",
        "first_name": "Иосиф",
        "last_name": "Davis",
        "full_name": "Davis Иосиф",
        "avatar": null
      },
      "pricing": {
        "currency": 1,
        "price": "4284800000.00",
        "price_from": null,
        "price_to": null,
        "currency_display": "UZS"
      },
      "status": 1,
      "subscription": null,
      "image": "https://6045bcfada7eaf657e3a72f25eb0f2fb.r2.cloudflarestorage.com/joymee-dev-private-bucket/announcement/file/image/2026/06/05/19/f0d907bbd2bc47b79f982552b991e229.jpg?X-Amz-Algorithm=AWS4-HMAC-SHA256&X-Amz-Credential=47995e78c42c96104e8c649c6465062b%2F20260614%2Fauto%2Fs3%2Faws4_request&X-Amz-Date=20260614T010823Z&X-Amz-Expires=3600&X-Amz-SignedHeaders=host&X-Amz-Signature=2ee21921dd3990e74f5319629827c12869a2bf679875e6ae14f3e6ac88577e1a",
      "created_at": "2026-05-06T18:41:03.679191+05:00"
    },
    {
      "id": 135,
      "title": "Смелый пастух протягивать отражение район трубка",
      "created_by": {
        "id": 139,
        "username": "uljan1998",
        "first_name": "Joseph",
        "last_name": "Киселева",
        "full_name": "Киселева Joseph",
        "avatar": null
      },
      "pricing": {
        "currency": 2,
        "price": "189000.00",
        "price_from": null,
        "price_to": null,
        "currency_display": "USD"
      },
      "status": 1,
      "subscription": null,
      "image": "https://6045bcfada7eaf657e3a72f25eb0f2fb.r2.cloudflarestorage.com/joymee-dev-private-bucket/announcement/file/image/2026/06/05/19/6984bd168a4d40fa85a2ae09b5dd87b7.jpg?X-Amz-Algorithm=AWS4-HMAC-SHA256&X-Amz-Credential=47995e78c42c96104e8c649c6465062b%2F20260614%2Fauto%2Fs3%2Faws4_request&X-Amz-Date=20260614T010823Z&X-Amz-Expires=3600&X-Amz-SignedHeaders=host&X-Amz-Signature=380f4f54cc3ee34edc53dcb7f5624f3937592b3ff15156e7c779a2165d6dade6",
      "created_at": "2026-05-06T18:41:03.719234+05:00"
    },
    {
      "id": 92,
      "title": "Than after purpose house season",
      "created_by": {
        "id": 193,
        "username": "pantelemon2006",
        "first_name": "Daniel",
        "last_name": "Jarvis",
        "full_name": "Jarvis Daniel",
        "avatar": null
      },
      "pricing": {
        "currency": 2,
        "price": "492000.00",
        "price_from": null,
        "price_to": null,
        "currency_display": "USD"
      },
      "status": 1,
      "subscription": null,
      "image": "https://6045bcfada7eaf657e3a72f25eb0f2fb.r2.cloudflarestorage.com/joymee-dev-private-bucket/announcement/file/image/2026/06/05/19/dbf24c9a895c4d9a81990ddcfa586547.jpg?X-Amz-Algorithm=AWS4-HMAC-SHA256&X-Amz-Credential=47995e78c42c96104e8c649c6465062b%2F20260614%2Fauto%2Fs3%2Faws4_request&X-Amz-Date=20260614T010823Z&X-Amz-Expires=3600&X-Amz-SignedHeaders=host&X-Amz-Signature=3bcb65acc1698e172fad1bdf451e1d9632deca4100da45095caf07e1cdfd1881",
      "created_at": "2026-05-06T18:41:03.697973+05:00"
    },
    {
      "id": 15,
      "title": "Natural effort information guess environmental",
      "created_by": {
        "id": 128,
        "username": "fsavina",
        "first_name": "Ashley",
        "last_name": "Jennings",
        "full_name": "Jennings Ashley",
        "avatar": null
      },
      "pricing": {
        "currency": 1,
        "price": null,
        "price_from": "3100000.00",
        "price_to": "23300000.00",
        "currency_display": "UZS"
      },
      "status": 1,
      "subscription": null,
      "image": "https://6045bcfada7eaf657e3a72f25eb0f2fb.r2.cloudflarestorage.com/joymee-dev-private-bucket/announcement/file/image/2026/06/05/19/814630664c2440d9853c830ac15c578f.jpg?X-Amz-Algorithm=AWS4-HMAC-SHA256&X-Amz-Credential=47995e78c42c96104e8c649c6465062b%2F20260614%2Fauto%2Fs3%2Faws4_request&X-Amz-Date=20260614T010823Z&X-Amz-Expires=3600&X-Amz-SignedHeaders=host&X-Amz-Signature=7dce92996c5b3b04367ad51966a51d901432ae386cde6f0b466f6e521544e245",
      "created_at": "2026-05-06T18:41:03.654053+05:00"
    }
  ]
}