RESPONSE
STATUS: 200
TIME: 1059ms

HEADERS:
  Server: nginx/1.18.0 (Ubuntu)
  Date: Mon, 15 Jun 2026 01:09:15 GMT
  Content-Type: application/json
  Content-Length: 7764
  Connection: keep-alive
  Vary: Accept, origin, Cookie
  Allow: GET, POST, HEAD, OPTIONS
  X-DjangoQueryCount-Count: 54
  X-Frame-Options: DENY
  X-Content-Type-Options: nosniff
  Referrer-Policy: same-origin
  Cross-Origin-Opener-Policy: same-origin
  Set-Cookie: sess***

BODY:
{
  "page": 1,
  "total_pages": 206,
  "next": "http://api-v2-dev.joymee.uz/api/v1/announcement/?page=2",
  "previous": null,
  "total_count": 1564,
  "results": [
    {
      "id": 232,
      "title": "Fight serious pressure",
      "created_by": {
        "id": 66,
        "username": "fjones",
        "first_name": "Ryan",
        "last_name": "Юдина",
        "full_name": "Юдина Ryan",
        "avatar": null
      },
      "pricing": {
        "currency": 2,
        "price": null,
        "price_from": "940.00",
        "price_to": "2400.00",
        "currency_display": "USD"
      },
      "status": 1,
      "subscription": 3,
      "image": "https://6045bcfada7eaf657e3a72f25eb0f2fb.r2.cloudflarestorage.com/joymee-dev-private-bucket/announcement/file/image/2026/06/05/19/c04065ce414a402ca811c5772d0ed74d.jpg?X-Amz-Algorithm=AWS4-HMAC-SHA256&X-Amz-Credential=47995e78c42c96104e8c649c6465062b%2F20260615%2Fauto%2Fs3%2Faws4_request&X-Amz-Date=20260615T010915Z&X-Amz-Expires=3600&X-Amz-SignedHeaders=host&X-Amz-Signature=a6a2c152a3cda6af716caaa64bb6e4dcc6472fb4c61b7487132f54de68f35d8e",
      "created_at": "2026-05-06T18:41:03.780086+05:00"
    },
    {
      "id": 413,
      "title": "Medical war front dark",
      "created_by": {
        "id": 105,
        "username": "briangutierrez",
        "first_name": "Варлаам",
        "last_name": "Smith",
        "full_name": "Smith Варлаам",
        "avatar": null
      },
      "pricing": {
        "currency": 1,
        "price": null,
        "price_from": "5200000.00",
        "price_to": "14500000.00",
        "currency_display": "UZS"
      },
      "status": 1,
      "subscription": 3,
      "image": "https://6045bcfada7eaf657e3a72f25eb0f2fb.r2.cloudflarestorage.com/joymee-dev-private-bucket/announcement/file/image/2026/06/05/19/fdf7610092494612b22a46ecc0ca08df.jpg?X-Amz-Algorithm=AWS4-HMAC-SHA256&X-Amz-Credential=47995e78c42c96104e8c649c6465062b%2F20260615%2Fauto%2Fs3%2Faws4_request&X-Amz-Date=20260615T010915Z&X-Amz-Expires=3600&X-Amz-SignedHeaders=host&X-Amz-Signature=4ba648303a3a84e4ccb96230c939fcd0dd7f27e4cd246df66d3d3c9e3bf8b97a",
      "created_at": "2026-05-06T18:41:03.907924+05:00"
    },
    {
      "id": 170,
      "title": "Банк сбросить механический сопровождаться что князь",
      "created_by": {
        "id": 181,
        "username": "anzhelika_2003",
        "first_name": "Лаврентий",
        "last_name": "Olson",
        "full_name": "Olson Лаврентий",
        "avatar": null
      },
      "pricing": {
        "currency": 2,
        "price": "349000.00",
        "price_from": null,
        "price_to": null,
        "currency_display": "USD"
      },
      "status": 1,
      "subscription": 3,
      "image": "https://6045bcfada7eaf657e3a72f25eb0f2fb.r2.cloudflarestorage.com/joymee-dev-private-bucket/announcement/file/image/2026/06/05/19/f5d253ae61e542b580eb3ed02d2a6284.jpg?X-Amz-Algorithm=AWS4-HMAC-SHA256&X-Amz-Credential=47995e78c42c96104e8c649c6465062b%2F20260615%2Fauto%2Fs3%2Faws4_request&X-Amz-Date=20260615T010915Z&X-Amz-Expires=3600&X-Amz-SignedHeaders=host&X-Amz-Signature=4fa92b2fb0914b72447af96f31828e660786d54d6b8dfa03eed27112df72dfae",
      "created_at": "2026-05-06T18:41:03.741903+05:00"
    },
    {
      "id": 8297,
      "title": "Phone drive may change especially really",
      "created_by": {
        "id": 6,
        "username": "+998915506316",
        "first_name": "Ravshanbek",
        "last_name": "",
        "full_name": "Ravshanbek",
        "avatar": null
      },
      "pricing": {
        "currency": 2,
        "price": null,
        "price_from": "600.00",
        "price_to": "640.00",
        "currency_display": "USD"
      },
      "status": 1,
      "subscription": null,
      "image": "https://6045bcfada7eaf657e3a72f25eb0f2fb.r2.cloudflarestorage.com/joymee-dev-private-bucket/announcement/file/image/2026/06/05/20/e5031dbe045b4b01bd31127184d29b25.jpg?X-Amz-Algorithm=AWS4-HMAC-SHA256&X-Amz-Credential=47995e78c42c96104e8c649c6465062b%2F20260615%2Fauto%2Fs3%2Faws4_request&X-Amz-Date=20260615T010915Z&X-Amz-Expires=3600&X-Amz-SignedHeaders=host&X-Amz-Signature=f41309e01b64a614d2478802a38eb4b621960cc37a36c33fcbd96009540dade1",
      "created_at": "2026-05-06T18:41:09.286714+05:00"
    },
    {
      "id": 32,
      "title": "More there manage right",
      "created_by": {
        "id": 104,
        "username": "kiravolkova",
        "first_name": "Любовь",
        "last_name": "Reed",
        "full_name": "Reed Любовь",
        "avatar": null
      },
      "pricing": {
        "currency": 2,
        "price": "184000.00",
        "price_from": null,
        "price_to": null,
        "currency_display": "USD"
      },
      "status": 1,
      "subscription": null,
      "image": "https://6045bcfada7eaf657e3a72f25eb0f2fb.r2.cloudflarestorage.com/joymee-dev-private-bucket/announcement/file/image/2026/06/05/19/689a74de90f34d7ca8bf851d1c09adaa.jpg?X-Amz-Algorithm=AWS4-HMAC-SHA256&X-Amz-Credential=47995e78c42c96104e8c649c6465062b%2F20260615%2Fauto%2Fs3%2Faws4_request&X-Amz-Date=20260615T010915Z&X-Amz-Expires=3600&X-Amz-SignedHeaders=host&X-Amz-Signature=6c92831edc9febd7999e8d2cd7791aa2aecd4d9d603d2665e3c6c5bd20f1bfa8",
      "created_at": "2026-05-06T18:41:03.667004+05:00"
    },
    {
      "id": 50,
      "title": "Решетка остановить добиться нервно",
      "created_by": {
        "id": 180,
        "username": "pbuck",
        "first_name": "Carolyn",
        "last_name": "Walker",
        "full_name": "Walker Carolyn",
        "avatar": null
      },
      "pricing": {
        "currency": 2,
        "price": "220000.00",
        "price_from": null,
        "price_to": null,
        "currency_display": "USD"
      },
      "status": 1,
      "subscription": null,
      "image": "https://6045bcfada7eaf657e3a72f25eb0f2fb.r2.cloudflarestorage.com/joymee-dev-private-bucket/announcement/file/image/2026/06/05/19/7783a226eaa64f88971c5922a3dfda03.jpg?X-Amz-Algorithm=AWS4-HMAC-SHA256&X-Amz-Credential=47995e78c42c96104e8c649c6465062b%2F20260615%2Fauto%2Fs3%2Faws4_request&X-Amz-Date=20260615T010915Z&X-Amz-Expires=3600&X-Amz-SignedHeaders=host&X-Amz-Signature=a3045d29aa8a0d3e482c32d7b5b504ceb64df70649cba7d0f50595a87697bed3",
      "created_at": "2026-05-06T18:41:03.678403+05:00"
    },
    {
      "id": 52,
      "title": "Offer cold chance then name director",
      "created_by": {
        "id": 96,
        "username": "john14",
        "first_name": "Иосиф",
        "last_name": "Davis",
        "full_name": "Davis Иосиф",
        "avatar": null
      },
      "pricing": {
        "currency": 1,
        "price": "4284800000.00",
        "price_from": null,
        "price_to": null,
        "currency_display": "UZS"
      },
      "status": 1,
      "subscription": null,
      "image": "https://6045bcfada7eaf657e3a72f25eb0f2fb.r2.cloudflarestorage.com/joymee-dev-private-bucket/announcement/file/image/2026/06/05/19/f0d907bbd2bc47b79f982552b991e229.jpg?X-Amz-Algorithm=AWS4-HMAC-SHA256&X-Amz-Credential=47995e78c42c96104e8c649c6465062b%2F20260615%2Fauto%2Fs3%2Faws4_request&X-Amz-Date=20260615T010915Z&X-Amz-Expires=3600&X-Amz-SignedHeaders=host&X-Amz-Signature=2ad22113d186c10c3de5179afbe04bcd5d91257aae7ea5b387044f02fdaf04ae",
      "created_at": "2026-05-06T18:41:03.679191+05:00"
    },
    {
      "id": 135,
      "title": "Смелый пастух протягивать отражение район трубка",
      "created_by": {
        "id": 139,
        "username": "uljan1998",
        "first_name": "Joseph",
        "last_name": "Киселева",
        "full_name": "Киселева Joseph",
        "avatar": null
      },
      "pricing": {
        "currency": 2,
        "price": "189000.00",
        "price_from": null,
        "price_to": null,
        "currency_display": "USD"
      },
      "status": 1,
      "subscription": null,
      "image": "https://6045bcfada7eaf657e3a72f25eb0f2fb.r2.cloudflarestorage.com/joymee-dev-private-bucket/announcement/file/image/2026/06/05/19/6984bd168a4d40fa85a2ae09b5dd87b7.jpg?X-Amz-Algorithm=AWS4-HMAC-SHA256&X-Amz-Credential=47995e78c42c96104e8c649c6465062b%2F20260615%2Fauto%2Fs3%2Faws4_request&X-Amz-Date=20260615T010915Z&X-Amz-Expires=3600&X-Amz-SignedHeaders=host&X-Amz-Signature=a10e6d9773999807fb2c8f4531a94f27e25ac49618c894295dc2f7fb3d00416a",
      "created_at": "2026-05-06T18:41:03.719234+05:00"
    },
    {
      "id": 15,
      "title": "Natural effort information guess environmental",
      "created_by": {
        "id": 128,
        "username": "fsavina",
        "first_name": "Ashley",
        "last_name": "Jennings",
        "full_name": "Jennings Ashley",
        "avatar": null
      },
      "pricing": {
        "currency": 1,
        "price": null,
        "price_from": "3100000.00",
        "price_to": "23300000.00",
        "currency_display": "UZS"
      },
      "status": 1,
      "subscription": null,
      "image": "https://6045bcfada7eaf657e3a72f25eb0f2fb.r2.cloudflarestorage.com/joymee-dev-private-bucket/announcement/file/image/2026/06/05/19/814630664c2440d9853c830ac15c578f.jpg?X-Amz-Algorithm=AWS4-HMAC-SHA256&X-Amz-Credential=47995e78c42c96104e8c649c6465062b%2F20260615%2Fauto%2Fs3%2Faws4_request&X-Amz-Date=20260615T010915Z&X-Amz-Expires=3600&X-Amz-SignedHeaders=host&X-Amz-Signature=cf37f865dfb6f7a92b5905aac0b0c54dc9910a005a08bec332fe8ba92c4e41d5",
      "created_at": "2026-05-06T18:41:03.654053+05:00"
    }
  ]
}