RESPONSE
STATUS: 200
TIME: 859ms

HEADERS:
  Server: nginx/1.18.0 (Ubuntu)
  Date: Sun, 14 Jun 2026 01:08:27 GMT
  Content-Type: application/json
  Content-Length: 7760
  Connection: keep-alive
  Vary: Accept, origin, Cookie
  Allow: GET, POST, HEAD, OPTIONS
  X-DjangoQueryCount-Count: 54
  X-Frame-Options: DENY
  X-Content-Type-Options: nosniff
  Referrer-Policy: same-origin
  Cross-Origin-Opener-Policy: same-origin
  Set-Cookie: sess***

BODY:
{
  "page": 1,
  "total_pages": 206,
  "next": "http://api-v2-dev.joymee.uz/api/v1/announcement/?page=2",
  "previous": null,
  "total_count": 1563,
  "results": [
    {
      "id": 232,
      "title": "Fight serious pressure",
      "created_by": {
        "id": 66,
        "username": "fjones",
        "first_name": "Ryan",
        "last_name": "Юдина",
        "full_name": "Юдина Ryan",
        "avatar": null
      },
      "pricing": {
        "currency": 2,
        "price": null,
        "price_from": "940.00",
        "price_to": "2400.00",
        "currency_display": "USD"
      },
      "status": 1,
      "subscription": 2,
      "image": "https://6045bcfada7eaf657e3a72f25eb0f2fb.r2.cloudflarestorage.com/joymee-dev-private-bucket/announcement/file/image/2026/06/05/19/c04065ce414a402ca811c5772d0ed74d.jpg?X-Amz-Algorithm=AWS4-HMAC-SHA256&X-Amz-Credential=47995e78c42c96104e8c649c6465062b%2F20260614%2Fauto%2Fs3%2Faws4_request&X-Amz-Date=20260614T010827Z&X-Amz-Expires=3600&X-Amz-SignedHeaders=host&X-Amz-Signature=99fe25ec9ee57427cf26f6b2ab1ca8c8b580a21e43db80b6dd1c75d43007ac7d",
      "created_at": "2026-05-06T18:41:03.780086+05:00"
    },
    {
      "id": 413,
      "title": "Medical war front dark",
      "created_by": {
        "id": 105,
        "username": "briangutierrez",
        "first_name": "Варлаам",
        "last_name": "Smith",
        "full_name": "Smith Варлаам",
        "avatar": null
      },
      "pricing": {
        "currency": 1,
        "price": null,
        "price_from": "5200000.00",
        "price_to": "14500000.00",
        "currency_display": "UZS"
      },
      "status": 1,
      "subscription": 2,
      "image": "https://6045bcfada7eaf657e3a72f25eb0f2fb.r2.cloudflarestorage.com/joymee-dev-private-bucket/announcement/file/image/2026/06/05/19/fdf7610092494612b22a46ecc0ca08df.jpg?X-Amz-Algorithm=AWS4-HMAC-SHA256&X-Amz-Credential=47995e78c42c96104e8c649c6465062b%2F20260614%2Fauto%2Fs3%2Faws4_request&X-Amz-Date=20260614T010827Z&X-Amz-Expires=3600&X-Amz-SignedHeaders=host&X-Amz-Signature=7612ae64251abc93fc321eee7ce1ae636dabf1243f7aed79e5ddaf1db1c6622c",
      "created_at": "2026-05-06T18:41:03.907924+05:00"
    },
    {
      "id": 170,
      "title": "Банк сбросить механический сопровождаться что князь",
      "created_by": {
        "id": 181,
        "username": "anzhelika_2003",
        "first_name": "Лаврентий",
        "last_name": "Olson",
        "full_name": "Olson Лаврентий",
        "avatar": null
      },
      "pricing": {
        "currency": 2,
        "price": "349000.00",
        "price_from": null,
        "price_to": null,
        "currency_display": "USD"
      },
      "status": 1,
      "subscription": 2,
      "image": "https://6045bcfada7eaf657e3a72f25eb0f2fb.r2.cloudflarestorage.com/joymee-dev-private-bucket/announcement/file/image/2026/06/05/19/f5d253ae61e542b580eb3ed02d2a6284.jpg?X-Amz-Algorithm=AWS4-HMAC-SHA256&X-Amz-Credential=47995e78c42c96104e8c649c6465062b%2F20260614%2Fauto%2Fs3%2Faws4_request&X-Amz-Date=20260614T010827Z&X-Amz-Expires=3600&X-Amz-SignedHeaders=host&X-Amz-Signature=a8d10f958f2e2b093a8916a24ad8af961c1c70138de1286e0a470327dd6cdea7",
      "created_at": "2026-05-06T18:41:03.741903+05:00"
    },
    {
      "id": 32,
      "title": "More there manage right",
      "created_by": {
        "id": 104,
        "username": "kiravolkova",
        "first_name": "Любовь",
        "last_name": "Reed",
        "full_name": "Reed Любовь",
        "avatar": null
      },
      "pricing": {
        "currency": 2,
        "price": "184000.00",
        "price_from": null,
        "price_to": null,
        "currency_display": "USD"
      },
      "status": 1,
      "subscription": null,
      "image": "https://6045bcfada7eaf657e3a72f25eb0f2fb.r2.cloudflarestorage.com/joymee-dev-private-bucket/announcement/file/image/2026/06/05/19/689a74de90f34d7ca8bf851d1c09adaa.jpg?X-Amz-Algorithm=AWS4-HMAC-SHA256&X-Amz-Credential=47995e78c42c96104e8c649c6465062b%2F20260614%2Fauto%2Fs3%2Faws4_request&X-Amz-Date=20260614T010827Z&X-Amz-Expires=3600&X-Amz-SignedHeaders=host&X-Amz-Signature=dcccce7ec2dd66dcb0b709f90274741be94221185da200cab78623f665e249f7",
      "created_at": "2026-05-06T18:41:03.667004+05:00"
    },
    {
      "id": 50,
      "title": "Решетка остановить добиться нервно",
      "created_by": {
        "id": 180,
        "username": "pbuck",
        "first_name": "Carolyn",
        "last_name": "Walker",
        "full_name": "Walker Carolyn",
        "avatar": null
      },
      "pricing": {
        "currency": 2,
        "price": "220000.00",
        "price_from": null,
        "price_to": null,
        "currency_display": "USD"
      },
      "status": 1,
      "subscription": null,
      "image": "https://6045bcfada7eaf657e3a72f25eb0f2fb.r2.cloudflarestorage.com/joymee-dev-private-bucket/announcement/file/image/2026/06/05/19/7783a226eaa64f88971c5922a3dfda03.jpg?X-Amz-Algorithm=AWS4-HMAC-SHA256&X-Amz-Credential=47995e78c42c96104e8c649c6465062b%2F20260614%2Fauto%2Fs3%2Faws4_request&X-Amz-Date=20260614T010827Z&X-Amz-Expires=3600&X-Amz-SignedHeaders=host&X-Amz-Signature=916b79e69884de44c0baa88f9acf247591241f69e70c064a777b006dc6ba23f3",
      "created_at": "2026-05-06T18:41:03.678403+05:00"
    },
    {
      "id": 52,
      "title": "Offer cold chance then name director",
      "created_by": {
        "id": 96,
        "username": "john14",
        "first_name": "Иосиф",
        "last_name": "Davis",
        "full_name": "Davis Иосиф",
        "avatar": null
      },
      "pricing": {
        "currency": 1,
        "price": "4284800000.00",
        "price_from": null,
        "price_to": null,
        "currency_display": "UZS"
      },
      "status": 1,
      "subscription": null,
      "image": "https://6045bcfada7eaf657e3a72f25eb0f2fb.r2.cloudflarestorage.com/joymee-dev-private-bucket/announcement/file/image/2026/06/05/19/f0d907bbd2bc47b79f982552b991e229.jpg?X-Amz-Algorithm=AWS4-HMAC-SHA256&X-Amz-Credential=47995e78c42c96104e8c649c6465062b%2F20260614%2Fauto%2Fs3%2Faws4_request&X-Amz-Date=20260614T010827Z&X-Amz-Expires=3600&X-Amz-SignedHeaders=host&X-Amz-Signature=3bffd4c99bc7c219b579ef8ca2893fb1f31dbc7771ba5ac6ed88d7923293e636",
      "created_at": "2026-05-06T18:41:03.679191+05:00"
    },
    {
      "id": 135,
      "title": "Смелый пастух протягивать отражение район трубка",
      "created_by": {
        "id": 139,
        "username": "uljan1998",
        "first_name": "Joseph",
        "last_name": "Киселева",
        "full_name": "Киселева Joseph",
        "avatar": null
      },
      "pricing": {
        "currency": 2,
        "price": "189000.00",
        "price_from": null,
        "price_to": null,
        "currency_display": "USD"
      },
      "status": 1,
      "subscription": null,
      "image": "https://6045bcfada7eaf657e3a72f25eb0f2fb.r2.cloudflarestorage.com/joymee-dev-private-bucket/announcement/file/image/2026/06/05/19/6984bd168a4d40fa85a2ae09b5dd87b7.jpg?X-Amz-Algorithm=AWS4-HMAC-SHA256&X-Amz-Credential=47995e78c42c96104e8c649c6465062b%2F20260614%2Fauto%2Fs3%2Faws4_request&X-Amz-Date=20260614T010827Z&X-Amz-Expires=3600&X-Amz-SignedHeaders=host&X-Amz-Signature=810022bea56f5ac3f5c354df78250a604a44d46c933fd46e984db54360681b76",
      "created_at": "2026-05-06T18:41:03.719234+05:00"
    },
    {
      "id": 92,
      "title": "Than after purpose house season",
      "created_by": {
        "id": 193,
        "username": "pantelemon2006",
        "first_name": "Daniel",
        "last_name": "Jarvis",
        "full_name": "Jarvis Daniel",
        "avatar": null
      },
      "pricing": {
        "currency": 2,
        "price": "492000.00",
        "price_from": null,
        "price_to": null,
        "currency_display": "USD"
      },
      "status": 1,
      "subscription": null,
      "image": "https://6045bcfada7eaf657e3a72f25eb0f2fb.r2.cloudflarestorage.com/joymee-dev-private-bucket/announcement/file/image/2026/06/05/19/dbf24c9a895c4d9a81990ddcfa586547.jpg?X-Amz-Algorithm=AWS4-HMAC-SHA256&X-Amz-Credential=47995e78c42c96104e8c649c6465062b%2F20260614%2Fauto%2Fs3%2Faws4_request&X-Amz-Date=20260614T010827Z&X-Amz-Expires=3600&X-Amz-SignedHeaders=host&X-Amz-Signature=a3184d7466eac07b0eea385e9f0c7d5f9312e8d18c2bcdf1b07b3a3a1d0f62d0",
      "created_at": "2026-05-06T18:41:03.697973+05:00"
    },
    {
      "id": 15,
      "title": "Natural effort information guess environmental",
      "created_by": {
        "id": 128,
        "username": "fsavina",
        "first_name": "Ashley",
        "last_name": "Jennings",
        "full_name": "Jennings Ashley",
        "avatar": null
      },
      "pricing": {
        "currency": 1,
        "price": null,
        "price_from": "3100000.00",
        "price_to": "23300000.00",
        "currency_display": "UZS"
      },
      "status": 1,
      "subscription": null,
      "image": "https://6045bcfada7eaf657e3a72f25eb0f2fb.r2.cloudflarestorage.com/joymee-dev-private-bucket/announcement/file/image/2026/06/05/19/814630664c2440d9853c830ac15c578f.jpg?X-Amz-Algorithm=AWS4-HMAC-SHA256&X-Amz-Credential=47995e78c42c96104e8c649c6465062b%2F20260614%2Fauto%2Fs3%2Faws4_request&X-Amz-Date=20260614T010827Z&X-Amz-Expires=3600&X-Amz-SignedHeaders=host&X-Amz-Signature=59a548daa7c5ab2c1333e51c31a33d3e8e48e28f1206bd6ed2d7ab5fe0ec682d",
      "created_at": "2026-05-06T18:41:03.654053+05:00"
    }
  ]
}