RESPONSE
STATUS: 200
TIME: 808ms

HEADERS:
  Server: nginx/1.18.0 (Ubuntu)
  Date: Sat, 13 Jun 2026 01:08:14 GMT
  Content-Type: application/json
  Content-Length: 7760
  Connection: keep-alive
  Vary: Accept, origin, Cookie
  Allow: GET, POST, HEAD, OPTIONS
  X-DjangoQueryCount-Count: 54
  X-Frame-Options: DENY
  X-Content-Type-Options: nosniff
  Referrer-Policy: same-origin
  Cross-Origin-Opener-Policy: same-origin
  Set-Cookie: sess***

BODY:
{
  "page": 1,
  "total_pages": 206,
  "next": "http://api-v2-dev.joymee.uz/api/v1/announcement/?page=2",
  "previous": null,
  "total_count": 1563,
  "results": [
    {
      "id": 232,
      "title": "Fight serious pressure",
      "created_by": {
        "id": 66,
        "username": "fjones",
        "first_name": "Ryan",
        "last_name": "Юдина",
        "full_name": "Юдина Ryan",
        "avatar": null
      },
      "pricing": {
        "currency": 2,
        "price": null,
        "price_from": "940.00",
        "price_to": "2400.00",
        "currency_display": "USD"
      },
      "status": 1,
      "subscription": 2,
      "image": "https://6045bcfada7eaf657e3a72f25eb0f2fb.r2.cloudflarestorage.com/joymee-dev-private-bucket/announcement/file/image/2026/06/05/19/c04065ce414a402ca811c5772d0ed74d.jpg?X-Amz-Algorithm=AWS4-HMAC-SHA256&X-Amz-Credential=47995e78c42c96104e8c649c6465062b%2F20260613%2Fauto%2Fs3%2Faws4_request&X-Amz-Date=20260613T010814Z&X-Amz-Expires=3600&X-Amz-SignedHeaders=host&X-Amz-Signature=1e4dc936ea8cdf7d967afa3834504c0afe0bb2746cdaf9026d24eb1ce03551ec",
      "created_at": "2026-05-06T18:41:03.780086+05:00"
    },
    {
      "id": 413,
      "title": "Medical war front dark",
      "created_by": {
        "id": 105,
        "username": "briangutierrez",
        "first_name": "Варлаам",
        "last_name": "Smith",
        "full_name": "Smith Варлаам",
        "avatar": null
      },
      "pricing": {
        "currency": 1,
        "price": null,
        "price_from": "5200000.00",
        "price_to": "14500000.00",
        "currency_display": "UZS"
      },
      "status": 1,
      "subscription": 2,
      "image": "https://6045bcfada7eaf657e3a72f25eb0f2fb.r2.cloudflarestorage.com/joymee-dev-private-bucket/announcement/file/image/2026/06/05/19/fdf7610092494612b22a46ecc0ca08df.jpg?X-Amz-Algorithm=AWS4-HMAC-SHA256&X-Amz-Credential=47995e78c42c96104e8c649c6465062b%2F20260613%2Fauto%2Fs3%2Faws4_request&X-Amz-Date=20260613T010814Z&X-Amz-Expires=3600&X-Amz-SignedHeaders=host&X-Amz-Signature=263bb8873a600661e641bb4f37d157d05a2fd0945a6eff2d235beeb2694c7097",
      "created_at": "2026-05-06T18:41:03.907924+05:00"
    },
    {
      "id": 170,
      "title": "Банк сбросить механический сопровождаться что князь",
      "created_by": {
        "id": 181,
        "username": "anzhelika_2003",
        "first_name": "Лаврентий",
        "last_name": "Olson",
        "full_name": "Olson Лаврентий",
        "avatar": null
      },
      "pricing": {
        "currency": 2,
        "price": "349000.00",
        "price_from": null,
        "price_to": null,
        "currency_display": "USD"
      },
      "status": 1,
      "subscription": 2,
      "image": "https://6045bcfada7eaf657e3a72f25eb0f2fb.r2.cloudflarestorage.com/joymee-dev-private-bucket/announcement/file/image/2026/06/05/19/f5d253ae61e542b580eb3ed02d2a6284.jpg?X-Amz-Algorithm=AWS4-HMAC-SHA256&X-Amz-Credential=47995e78c42c96104e8c649c6465062b%2F20260613%2Fauto%2Fs3%2Faws4_request&X-Amz-Date=20260613T010814Z&X-Amz-Expires=3600&X-Amz-SignedHeaders=host&X-Amz-Signature=d1d29ad0348658a8e8d234ffa440b9bdda1477698010153aa6ed926c982b00d8",
      "created_at": "2026-05-06T18:41:03.741903+05:00"
    },
    {
      "id": 32,
      "title": "More there manage right",
      "created_by": {
        "id": 104,
        "username": "kiravolkova",
        "first_name": "Любовь",
        "last_name": "Reed",
        "full_name": "Reed Любовь",
        "avatar": null
      },
      "pricing": {
        "currency": 2,
        "price": "184000.00",
        "price_from": null,
        "price_to": null,
        "currency_display": "USD"
      },
      "status": 1,
      "subscription": null,
      "image": "https://6045bcfada7eaf657e3a72f25eb0f2fb.r2.cloudflarestorage.com/joymee-dev-private-bucket/announcement/file/image/2026/06/05/19/689a74de90f34d7ca8bf851d1c09adaa.jpg?X-Amz-Algorithm=AWS4-HMAC-SHA256&X-Amz-Credential=47995e78c42c96104e8c649c6465062b%2F20260613%2Fauto%2Fs3%2Faws4_request&X-Amz-Date=20260613T010814Z&X-Amz-Expires=3600&X-Amz-SignedHeaders=host&X-Amz-Signature=cc29ec35cd763656d11cc56a22e971f72a3107a4a12532270b91a2118beb8d20",
      "created_at": "2026-05-06T18:41:03.667004+05:00"
    },
    {
      "id": 50,
      "title": "Решетка остановить добиться нервно",
      "created_by": {
        "id": 180,
        "username": "pbuck",
        "first_name": "Carolyn",
        "last_name": "Walker",
        "full_name": "Walker Carolyn",
        "avatar": null
      },
      "pricing": {
        "currency": 2,
        "price": "220000.00",
        "price_from": null,
        "price_to": null,
        "currency_display": "USD"
      },
      "status": 1,
      "subscription": null,
      "image": "https://6045bcfada7eaf657e3a72f25eb0f2fb.r2.cloudflarestorage.com/joymee-dev-private-bucket/announcement/file/image/2026/06/05/19/7783a226eaa64f88971c5922a3dfda03.jpg?X-Amz-Algorithm=AWS4-HMAC-SHA256&X-Amz-Credential=47995e78c42c96104e8c649c6465062b%2F20260613%2Fauto%2Fs3%2Faws4_request&X-Amz-Date=20260613T010814Z&X-Amz-Expires=3600&X-Amz-SignedHeaders=host&X-Amz-Signature=ba972a0b078cd44c96497d7f2d095fc791762aa13f4083623cc4249d84b1ff90",
      "created_at": "2026-05-06T18:41:03.678403+05:00"
    },
    {
      "id": 52,
      "title": "Offer cold chance then name director",
      "created_by": {
        "id": 96,
        "username": "john14",
        "first_name": "Иосиф",
        "last_name": "Davis",
        "full_name": "Davis Иосиф",
        "avatar": null
      },
      "pricing": {
        "currency": 1,
        "price": "4284800000.00",
        "price_from": null,
        "price_to": null,
        "currency_display": "UZS"
      },
      "status": 1,
      "subscription": null,
      "image": "https://6045bcfada7eaf657e3a72f25eb0f2fb.r2.cloudflarestorage.com/joymee-dev-private-bucket/announcement/file/image/2026/06/05/19/f0d907bbd2bc47b79f982552b991e229.jpg?X-Amz-Algorithm=AWS4-HMAC-SHA256&X-Amz-Credential=47995e78c42c96104e8c649c6465062b%2F20260613%2Fauto%2Fs3%2Faws4_request&X-Amz-Date=20260613T010814Z&X-Amz-Expires=3600&X-Amz-SignedHeaders=host&X-Amz-Signature=42c4a75d538c14d9d674ed5a03b1fb6aca4c495e26030cffb38ca7bad55c5790",
      "created_at": "2026-05-06T18:41:03.679191+05:00"
    },
    {
      "id": 135,
      "title": "Смелый пастух протягивать отражение район трубка",
      "created_by": {
        "id": 139,
        "username": "uljan1998",
        "first_name": "Joseph",
        "last_name": "Киселева",
        "full_name": "Киселева Joseph",
        "avatar": null
      },
      "pricing": {
        "currency": 2,
        "price": "189000.00",
        "price_from": null,
        "price_to": null,
        "currency_display": "USD"
      },
      "status": 1,
      "subscription": null,
      "image": "https://6045bcfada7eaf657e3a72f25eb0f2fb.r2.cloudflarestorage.com/joymee-dev-private-bucket/announcement/file/image/2026/06/05/19/6984bd168a4d40fa85a2ae09b5dd87b7.jpg?X-Amz-Algorithm=AWS4-HMAC-SHA256&X-Amz-Credential=47995e78c42c96104e8c649c6465062b%2F20260613%2Fauto%2Fs3%2Faws4_request&X-Amz-Date=20260613T010814Z&X-Amz-Expires=3600&X-Amz-SignedHeaders=host&X-Amz-Signature=a0dd875c8e79d96769d3b86416ee5701d41818bede66428e8be6181b2140166d",
      "created_at": "2026-05-06T18:41:03.719234+05:00"
    },
    {
      "id": 92,
      "title": "Than after purpose house season",
      "created_by": {
        "id": 193,
        "username": "pantelemon2006",
        "first_name": "Daniel",
        "last_name": "Jarvis",
        "full_name": "Jarvis Daniel",
        "avatar": null
      },
      "pricing": {
        "currency": 2,
        "price": "492000.00",
        "price_from": null,
        "price_to": null,
        "currency_display": "USD"
      },
      "status": 1,
      "subscription": null,
      "image": "https://6045bcfada7eaf657e3a72f25eb0f2fb.r2.cloudflarestorage.com/joymee-dev-private-bucket/announcement/file/image/2026/06/05/19/dbf24c9a895c4d9a81990ddcfa586547.jpg?X-Amz-Algorithm=AWS4-HMAC-SHA256&X-Amz-Credential=47995e78c42c96104e8c649c6465062b%2F20260613%2Fauto%2Fs3%2Faws4_request&X-Amz-Date=20260613T010814Z&X-Amz-Expires=3600&X-Amz-SignedHeaders=host&X-Amz-Signature=45db5476e63860ec5a9140560e37c3d770edf17c34603535fb7cfbac3eee06ff",
      "created_at": "2026-05-06T18:41:03.697973+05:00"
    },
    {
      "id": 15,
      "title": "Natural effort information guess environmental",
      "created_by": {
        "id": 128,
        "username": "fsavina",
        "first_name": "Ashley",
        "last_name": "Jennings",
        "full_name": "Jennings Ashley",
        "avatar": null
      },
      "pricing": {
        "currency": 1,
        "price": null,
        "price_from": "3100000.00",
        "price_to": "23300000.00",
        "currency_display": "UZS"
      },
      "status": 1,
      "subscription": null,
      "image": "https://6045bcfada7eaf657e3a72f25eb0f2fb.r2.cloudflarestorage.com/joymee-dev-private-bucket/announcement/file/image/2026/06/05/19/814630664c2440d9853c830ac15c578f.jpg?X-Amz-Algorithm=AWS4-HMAC-SHA256&X-Amz-Credential=47995e78c42c96104e8c649c6465062b%2F20260613%2Fauto%2Fs3%2Faws4_request&X-Amz-Date=20260613T010814Z&X-Amz-Expires=3600&X-Amz-SignedHeaders=host&X-Amz-Signature=2c2601eb76d6e8d4f804cb42820834ff7b6eb7a0249caf91a2b144fafe8c21d5",
      "created_at": "2026-05-06T18:41:03.654053+05:00"
    }
  ]
}